%YAML 1.1
%TAG !u! tag:unity3d.com,2011:
--- !u!21 &2100000
Material:
  serializedVersion: 8
  m_ObjectHideFlags: 0
  m_CorrespondingSourceObject: {fileID: 0}
  m_PrefabInstance: {fileID: 0}
  m_PrefabAsset: {fileID: 0}
  m_Name: M Conifer Leaves BODT
  m_Shader: {fileID: 4800000, guid: 6ae32366f15a64fc19f245f040af8f21, type: 3}
  m_Parent: {fileID: 0}
  m_ModifiedSerializedProperties: 0
  m_ValidKeywords:
  - GEOM_TYPE_LEAF
  - _EMISSION
  - _METALLICGLOSSMAP
  m_InvalidKeywords:
  - _ALPHAPREMULTIPLY_ON
  - _SPECULARHIGHLIGHTS_OFF
  m_LightmapFlags: 4
  m_EnableInstancingVariants: 1
  m_DoubleSidedGI: 0
  m_CustomRenderQueue: -1
  stringTagMap: {}
  disabledShaderPasses: []
  m_LockedProperties: 
  m_SavedProperties:
    serializedVersion: 3
    m_TexEnvs:
    - _BumpMap:
        m_Texture: {fileID: 0}
        m_Scale: {x: 1, y: 1}
        m_Offset: {x: 0, y: 0}
    - _BumpSpecAOMap:
        m_Texture: {fileID: 2800000, guid: 37fe0b5bbca93450593b8790186bf777, type: 3}
        m_Scale: {x: 1, y: 1}
        m_Offset: {x: 0, y: 0}
    - _BumpSpecAOMapArray:
        m_Texture: {fileID: 0}
        m_Scale: {x: 1, y: 1}
        m_Offset: {x: 0, y: 0}
    - _BumpSpecMap:
        m_Texture: {fileID: 2800000, guid: d7dcdeeae2a5d4c6f8e5328e09728b47, type: 3}
        m_Scale: {x: 1, y: 1}
        m_Offset: {x: 0, y: 0}
    - _DetailAlbedoMap:
        m_Texture: {fileID: 0}
        m_Scale: {x: 1, y: 1}
        m_Offset: {x: 0, y: 0}
    - _DetailMask:
        m_Texture: {fileID: 0}
        m_Scale: {x: 1, y: 1}
        m_Offset: {x: 0, y: 0}
    - _DetailNormalMap:
        m_Texture: {fileID: 0}
        m_Scale: {x: 1, y: 1}
        m_Offset: {x: 0, y: 0}
    - _DetailNormalMapX:
        m_Texture: {fileID: 2800000, guid: 37fe0b5bbca93450593b8790186bf777, type: 3}
        m_Scale: {x: 1, y: 1}
        m_Offset: {x: 0, y: 0}
    - _EmissionMap:
        m_Texture: {fileID: 0}
        m_Scale: {x: 1, y: 1}
        m_Offset: {x: 0, y: 0}
    - _MainTex:
        m_Texture: {fileID: 2800000, guid: 5597dc21a8aed4e7ba2c0f93dc4b1d98, type: 3}
        m_Scale: {x: 1, y: 1}
        m_Offset: {x: 0, y: 0}
    - _MainTexArray:
        m_Texture: {fileID: 0}
        m_Scale: {x: 1, y: 1}
        m_Offset: {x: 0, y: 0}
    - _MetallicGlossMap:
        m_Texture: {fileID: 0}
        m_Scale: {x: 1, y: 1}
        m_Offset: {x: 0, y: 0}
    - _OcclusionMap:
        m_Texture: {fileID: 0}
        m_Scale: {x: 1, y: 1}
        m_Offset: {x: 0, y: 0}
    - _ParallaxMap:
        m_Texture: {fileID: 0}
        m_Scale: {x: 1, y: 1}
        m_Offset: {x: 0, y: 0}
    - _ShadowMap:
        m_Texture: {fileID: 0}
        m_Scale: {x: 1, y: 1}
        m_Offset: {x: 0, y: 0}
    - _TranslucencyMap:
        m_Texture: {fileID: 2800000, guid: 33f294801c081fa46a8b7728f4e1267f, type: 3}
        m_Scale: {x: 1, y: 1}
        m_Offset: {x: 0, y: 0}
    m_Ints: []
    m_Floats:
    - _AmbientTranslucency: 0
    - _AnimateNormal: 0
    - _BackFaceSmoothness: 0
    - _BranchWind: 0
    - _BumpScale: 1
    - _ColorContrast: 1
    - _ColorMultiplier: 1
    - _Culling: 0
    - _Cutoff: 0.5
    - _DebugBending: 0
    - _DebugMode: 4
    - _DetailMode: 0
    - _DetailNormalMapScale: 1
    - _DstBlend: 10
    - _EdgeFlutterInfluence: 0
    - _EnableAdvancedEdgeBending: 1
    - _EnableLeafTurbulence: 1
    - _EnableShadowMap: 0
    - _EnableTransFade: 0
    - _FadeOutWind: 0
    - _GlossMapScale: 1
    - _Glossiness: 0.5
    - _GlossyReflections: 1
    - _IsBark: 0
    - _LODTerrain: 1
    - _LeafTumbling: 0
    - _LeafTurbulence: 0.1
    - _MainWind: 0
    - _Metallic: 0
    - _Mode: 3
    - _NormalLerp: 1
    - _OcclusionStrength: 1
    - _Parallax: 0.02
    - _ShadowCulling: 0
    - _SmoothnessTextureChannel: 0
    - _SpecularHighlights: 1
    - _SrcBlend: 1
    - _SwapUVS: 0
    - _Tangents: 0
    - _TimeOffset: 0.25
    - _TranslucencyStrength: 0
    - _TumbleFrequency: 0.2
    - _TumbleStrength: 0.002
    - _UVSec: 0
    - _UseArrays: 0
    - _UseDetails: 0
    - _ViewDependency: 0
    - _ZWrite: 0
    m_Colors:
    - _AdvancedEdgeBending: {r: 0.6, g: 1.3, b: 0, a: 0}
    - _AverageCol: {r: 1, g: 1, b: 1, a: 0.5}
    - _BaseWindMultipliers: {r: 0, g: 0, b: 0, a: 0}
    - _Color: {r: 1, g: 1, b: 1, a: 1}
    - _EmissionColor: {r: 0, g: 0, b: 0, a: 1}
    - _HueVariation: {r: 0, g: 0.9, b: 0.8255172, a: 0.1}
  m_BuildTextureStacks: []
